<?xml version="1.0" encoding="utf-8"?>
<!-- Generator: Adobe Illustrator 24.2.1, SVG Export Plug-In . SVG Version: 6.00 Build 0)  -->
<svg version="1.1" id="Calque_1" xmlns="http://www.w3.org/2000/svg" xmlns:xlink="http://www.w3.org/1999/xlink" x="0px" y="0px"
	 viewBox="0 0 995.9 368.15" style="enable-background:new 0 0 995.9 368.15;" xml:space="preserve">
<style type="text/css">
	.st0{fill:#6AD8A3;}
</style>
<g id="Groupe_1" transform="translate(271.135 343.424)">
	<path id="Tracé_1" class="st0" d="M671.67,7.1c0.11-19.31,18.43-37.44,36.65-36.25c11.64,0.76,17.05,6.86,16.38,18.45
		c-1,17.26-18.48,34.95-34.98,35.41C677.52,25.05,671.61,19.28,671.67,7.1z"/>
	<path id="Tracé_2" class="st0" d="M655.92-147.91c-0.47-9.08-6.23-17.04-14.71-20.33c-3.82-1.33-7.89-1.8-11.91-1.39
		c-2.01-0.02-4.09,0.18-5.45-1.83c-4.88-7.19-12.26-9.01-20.29-9.25c-11.69-0.09-23.23,2.62-33.65,7.92
		c-16.98,8.4-32.63,19.28-46.41,32.28c-26.79,24.3-46.71,52.86-55.81,88.26c-0.36,2.15-1.27,4.17-2.65,5.86
		c-8.47,9.72-18.34,18.12-29.28,24.92c-3.31,2.04-6.97,3.46-10.79,4.19c-3.86,1.33-8.06-0.73-9.39-4.59
		c-0.28-0.8-0.41-1.65-0.4-2.49c-0.5-3.71-0.08-7.48,1.23-10.98c1.72-5.31,3.52-10.6,5.67-15.73
		c11.47-27.32,25.03-53.63,39.11-79.68c31.78-58.79,67.15-115.47,102.41-172.2c5.6-8.38,10.74-17.05,15.38-26
		c3.91-8.2-0.07-14.42-9.07-14.41c-12.18-0.69-23.9,4.78-31.2,14.56c-2.58,3.49-5.35,6.84-7.87,10.37
		c-17.83,25.01-33.8,51.22-49.62,77.52c-13.48,22.44-26.63,45.11-39.77,67.76c-2.1,3.62-3.89,4.19-7.09,1.36
		c-4.63-4.02-10.7-5.98-16.81-5.43c-4.65,0.16-9.28,0.66-13.85,1.5c-13.51,2.95-26.47,8-38.41,14.98
		c-41.75,23.25-73.93,55.72-93.77,99.37c-4.75,10.4-11.62,19.7-20.16,27.31c-5.82,5.84-12.61,10.61-20.07,14.1
		c-3.74,1.55-7.76,3.37-11.44,0.41c-2.93-2.91-4.03-7.19-2.86-11.15c1.54-9.49,4.23-18.76,8-27.61
		c10.9-27.87,24.35-54.68,40.17-80.09c5.65-9.08,10.76-18.49,15.31-28.17c2.37-5.21-0.32-12.72-4.94-12.99
		c-13.23-0.78-25.83,0.98-34.91,12.23c-5.63,7.02-10.56,14.57-14.74,22.54c-3.58,7.05-7.85,13.73-12.75,19.95
		c-23.15,28.73-48.07,56-74.6,81.63c-5.64,5.78-12.06,10.76-19.06,14.79c-2.01,1.07-4.29,2.53-6.51,0.82
		c-2.22-1.71-1.39-4.23-0.76-6.47c1.61-5.67,3.64-11.2,6.09-16.56c9.21-20.51,19.74-40.36,30.39-60.15
		c7.64-14.19,15.94-28.03,22.88-42.58c1.79-2.77,2.38-6.15,1.63-9.36c-2.4-8.53-11.27-13.5-19.8-11.09
		c-2.7,0.76-5.15,2.21-7.11,4.21c-3.75,3.72-6.96,7.95-9.54,12.56c-23.33,40.82-50.97,79.42-64.37,125.32
		c-0.84,2.86-2.56,3.24-4.95,2.1c-3.64-1.74-7.35-3.37-10.84-5.35C29.31-51.02,3.11-68.84-21.83-88.33
		c-25.32-19.75-51.66-38.14-78.91-55.12c-1.03-0.62-2.61-0.97-2.62-2.38c0-1.71,1.77-1.97,2.96-2.54
		c12.73-6.09,25.54-12.02,38.22-18.2c57.52-27.5,113.13-58.85,166.45-93.82c19.56-12.88,38.25-27.04,55.95-42.38
		c6.86-6.01,6.29-13.46-1.32-18.51c-2.34-1.53-4.83-2.8-7.44-3.8c-7.71-3-16.01-3.64-23.92-5.87c-1.87-0.43-3.83,0.27-5,1.8
		c-4.81,4.85-10.12,9.17-15.85,12.89C46.95-275.31-14.85-237.43-78.45-202.76c-3.89,2.11-7.85,4.09-11.99,6.26
		c-0.31-2.32,1.02-3.38,1.8-4.6c14.52-22.73,29.06-45.43,43.64-68.12c8.23-12.77,16.59-25.44,24.9-38.16
		c2.38-3.64,4.47-7.76,1.94-11.72c-4.88-8.65-13.71-14.33-23.6-15.19c-7.81-0.45-15.55,1.64-22.08,5.95
		c-8.49,5.13-16.82,10.54-25.28,15.72c-10.4,7.05-21.27,13.39-32.52,18.98c-6.07,3.24-13.05,4.38-19.84,3.22
		c-2.89-0.66-4.45-2.01-3.49-5.23c0.41-1.44,1.17-3.13-0.45-4.27c-1.46-1.03-3-0.17-4.43,0.39c-15.15,6.08-22.5,23.28-16.42,38.43
		c0.82,2.03,1.86,3.97,3.1,5.77c3.47,5.26,9.05,8.76,15.3,9.59c11.51,1.23,23.1-1.33,33.02-7.3c7.14-3.78,13.43-8.84,20.48-13.29
		c-0.45,0.78-0.84,1.59-1.34,2.33c-19.13,28.78-38.27,57.55-57.44,86.31c-6.71,10.01-6.9,9.88-19.07,8.58
		c-14.15-0.57-26.54,9.42-28.97,23.37c-0.94,4.46,1.91,8.84,6.37,9.79c0.03,0.01,0.06,0.01,0.09,0.02c2.71,0.7,5.5,1,8.29,0.9
		c3.51,0.09,4.67,1.37,2.45,4.54c-0.82,1.14-1.54,2.32-2.32,3.49c-24.59,36.88-49.18,73.76-73.75,110.65
		c-4.22,5.75-7.74,12-10.46,18.59c-1.93,5.33,1.04,8.52,4.53,11.59c2.66,3.06,7.14,3.72,10.57,1.58c3.72-2.61,8.21-3.88,12.74-3.61
		c12.51,1.53,20.88-2.93,27.75-14.35c21.5-35.71,44.24-70.69,66.48-105.93c5.41-8.58,5.39-8.63,14.17-3.58
		c22.44,13.56,43.99,28.52,64.53,44.8C-43.19-47.1-17.35-26.02,10.4-7.48C21.27,0.27,32.94,6.83,45.22,12.09
		c7.31,3.17,15.42,4.05,23.24,2.53c9.34-2.01,9.29-1.9,18.39,2.04c10.18,4.42,20.11,2.51,29.68-1.99
		c20.24-9.52,35.63-25.06,50.53-41.13c6.59-7.11,12.83-14.56,19.2-21.86c0.29,1.08,0.21,2.22-0.23,3.24
		c-3.17,7.93-5.08,16.3-5.67,24.82c-1.82,20.31,8.94,34.9,27.82,37.31c9.6,1.32,19.37-0.11,28.19-4.11
		c8.9-4.08,17.15-9.42,24.52-15.87c2.9-2.51,4.65-2.92,6.42,1.18c3.94,9.85,13.76,16.05,24.34,15.36c14.08,0.18,26.35-5.25,38-12.28
		c23.02-13.86,41.59-32.69,58.66-53.14c0.89-1.06,1.45-2.66,3.27-2.92c0.08,0.39,0.1,0.78,0.05,1.18c-0.54,1.45-1.13,2.86-1.7,4.32
		c-5.59,12.31-8.61,25.63-8.87,39.14c-0.63,13.52,9.17,25.29,22.58,27.12c14,2.85,28.56,0.42,40.86-6.84
		c7.14-4.09,13.85-8.89,20.02-14.33c2.15-1.87,3.46-1.99,4.98,0.74c9.11,16.42,23.83,21.05,41.43,19.27
		c12.34-1.65,24.22-5.77,34.93-12.11c24.92-13.61,44.79-33.1,62.83-54.56c17.58-19.9,31.7-42.61,41.75-67.19
		C654.44-127.44,656.32-137.66,655.92-147.91z M398.55-112.48c-20.48,25.27-42.48,49.27-65.87,71.88
		c-4.89,4.76-10.15,9.11-15.75,13.01c-1.77,1.26-3.63,2.37-5.57,3.34c-5.97,2.84-8.84,0.95-8.77-5.63c0.17-2.94,0.84-5.84,1.98-8.56
		c20.12-48.41,53.96-83.1,102.91-102.68c2.89-1.11,5.85-2.04,8.86-2.79c1.72-0.45,3.96-2.1,5.17-0.51c1.28,1.68-0.99,3.31-2.04,4.69
		C412.57-130.61,405.8-121.35,398.55-112.48L398.55-112.48z M613.36-130.6c-1.01,5.18-2.83,10.17-5.39,14.78
		c-10.86,20.93-24.34,40.39-40.12,57.92c-11.45,13.52-25.3,24.8-40.86,33.28c-2.99,1.64-6.1,3.04-9.31,4.19
		c-11.93,4.13-17.52,0.04-17.37-12.51c0.07-6.84,1.5-13.61,4.22-19.89c17.87-40.78,45.33-72.85,85.56-93.19
		c1.23-0.63,2.53-1.18,3.82-1.72c5.54-2.28,5.58-2.28,7.38,3.56c0.77,3.29,3.58,5.7,6.95,5.96
		C613.12-137.69,613.93-134.55,613.36-130.6L613.36-130.6z"/>
</g>
</svg>
